Compute partial identification bounds on local ecological quantities — ei_bounds • seine
…
    Methods (by generic)

as.array(ei_bounds): Format bounds as an array with dimensions
<rows>*<predictors>*<outcomes>*2. Does not work if the object has been sorted.

    Examples

data(elec_1968)

spec = ei_spec(elec_1968, vap_white:vap_other, pres_dem_hum:pres_abs,
               total = pres_total, covariates = c(state, pop_urban, farm))

ei_bounds(spec, bounds = c(0, 1))
#> # A tibble: 13,716 × 6
#>     .row predictor outcome      weight     min    max
#>    <int> <chr>     <chr>         <dbl>   <dbl>  <dbl>
#>  1     1 vap_white pres_dem_hum  5877. 0       0.262 
#>  2     2 vap_white pres_dem_hum 16131. 0       0.122 
#>  3     3 vap_white pres_dem_hum  4872. 0       0.397 
#>  4     4 vap_white pres_dem_hum  3566. 0       0.180 
#>  5     5 vap_white pres_dem_hum  8801. 0.0190  0.0382
#>  6     6 vap_white pres_dem_hum  1698. 0       1     
#>  7     7 vap_white pres_dem_hum  4970. 0       0.250 
#>  8     8 vap_white pres_dem_hum 22844. 0.00707 0.183 
#>  9     9 vap_white pres_dem_hum  7731. 0       0.178 
#> 10    10 vap_white pres_dem_hum  5259. 0.00915 0.0855
#> # ℹ 13,706 more rows
…
# Infer bounds
ei_bounds(pres_ind_wal ~ vap_white, data = elec_1968, total = pres_total, bounds = NULL)
#> # A tibble: 2,286 × 6
#>     .row predictor outcome      weight   min   max
#>    <int> <chr>     <chr>         <dbl> <dbl> <dbl>
#>  1     1 vap_white pres_ind_wal  5877. 0.620 0.934
#>  2     2 vap_white pres_ind_wal 16131. 0.726 0.889
#>  3     3 vap_white pres_ind_wal  4872. 0.487 1    
#>  4     4 vap_white pres_ind_wal  3566. 0.743 1    
#>  5     5 vap_white pres_ind_wal  8801. 0.721 0.741
#>  6     6 vap_white pres_ind_wal  1698. 0     1    
#>  7     7 vap_white pres_ind_wal  4970. 0.644 1    
#>  8     8 vap_white pres_ind_wal 22844. 0.668 0.844
#>  9     9 vap_white pres_ind_wal  7731. 0.640 1    
#> 10    10 vap_white pres_ind_wal  5259. 0.828 0.905
#> # ℹ 2,276 more rows

# With contrast
ei_bounds(
    spec,
    bounds = c(0, 1),
    contrast = list(predictor = c(1, -1, 0), outcome = c(1, -1, 0, 0))
)
#> # A tibble: 1,143 × 5
#>     .row predictor             outcome                        min   max
#>    <int> <chr>                 <chr>                        <dbl> <dbl>
#>  1     1 vap_white - vap_black pres_dem_hum - pres_rep_nix -0.942 0.588
#>  2     2 vap_white - vap_black pres_dem_hum - pres_rep_nix -0.895 0.958
#>  3     3 vap_white - vap_black pres_dem_hum - pres_rep_nix -0.704 0.523
#>  4     4 vap_white - vap_black pres_dem_hum - pres_rep_nix -0.727 0.445
#>  5     5 vap_white - vap_black pres_dem_hum - pres_rep_nix -1.21  0.831
#>  6     6 vap_white - vap_black pres_dem_hum - pres_rep_nix -0.854 0.973
#>  7     7 vap_white - vap_black pres_dem_hum - pres_rep_nix -0.633 0.466
#>  8     8 vap_white - vap_black pres_dem_hum - pres_rep_nix -1.13  0.953
#>  9     9 vap_white - vap_black pres_dem_hum - pres_rep_nix -0.614 0.551
#> 10    10 vap_white - vap_black pres_dem_hum - pres_rep_nix -1.06  0.950
#> # ℹ 1,133 more rows
…
