Produce local ecological estimates — ei_est_local • seine
…
    McCartan, C., & Kuriwaki, S. (2025+). Identification and semiparametric
estimation of conditional means from aggregate data.
Working paper arXiv:2509.20194.

    Examples

data(elec_1968)

spec = ei_spec(elec_1968, vap_white:vap_other, pres_dem_hum:pres_abs,
               total = pres_total, covariates = c(state, pop_urban, farm))

m = ei_ridge(spec)

ei_est_local(m, spec, bounds = c(0, 1), sum_one = TRUE, conf_level = 0.95)
#> # A tibble: 13,716 × 8
#>     .row predictor outcome          wt estimate std.error conf.low conf.high
#>    <int> <chr>     <chr>         <dbl>    <dbl>     <dbl>    <dbl>     <dbl>
#>  1     1 vap_white pres_dem_hum  5877. 4.56e- 2   0.0262    0         0.124 
#>  2     2 vap_white pres_dem_hum 16131. 8.85e- 3   0.0138    0         0.0499
#>  3     3 vap_white pres_dem_hum  4872. 1.73e-18   0.0462    0         0.138 
#>  4     4 vap_white pres_dem_hum  3566. 8.67e-19   0.0238    0         0.0708
#>  5     5 vap_white pres_dem_hum  8801. 2.53e- 2   0.00164   0.0204    0.0302
#>  6     6 vap_white pres_dem_hum  1698. 6.72e- 2   0.0693    0         0.274 
#>  7     7 vap_white pres_dem_hum  4970. 6.94e-18   0.0369    0         0.110 
#>  8     8 vap_white pres_dem_hum 22844. 6.02e- 2   0.0154    0.0144    0.106 
#>  9     9 vap_white pres_dem_hum  7731. 0          0.0307    0         0.0916
#> 10    10 vap_white pres_dem_hum  5259. 3.49e- 2   0.00659   0.0153    0.0546
#> # ℹ 13,706 more rows
…
