…
## Examples

``` r
data(elec_1968)

spec = ei_spec(elec_1968, vap_white:vap_other, pres_dem_hum:pres_abs,
               total = pres_total, covariates = c(state, pop_urban, farm))

m = ei_ridge(spec)

ei_est_local(m, spec, bounds = c(0, 1), sum_one = TRUE, conf_level = 0.95)
#> Warning: Local confidence intervals do not yet incorporate prediction uncertainty.
#> This warning is displayed once every 8 hours.
#> # A tibble: 13,716 × 7
#>     .row predictor outcome          wt estimate conf.low conf.high
#>    <int> <chr>     <chr>         <dbl>    <dbl>    <dbl>     <dbl>
#>  1     1 vap_white pres_dem_hum  5877. 4.56e- 2        0    0.552 
#>  2     2 vap_white pres_dem_hum 16131. 8.85e- 3        0    0.259 
#>  3     3 vap_white pres_dem_hum  4872. 1.73e-18        0    0.651 
#>  4     4 vap_white pres_dem_hum  3566. 8.67e-19        0    0.481 
#>  5     5 vap_white pres_dem_hum  8801. 2.53e- 2        0    0.0537
#>  6     6 vap_white pres_dem_hum  1698. 6.72e- 2        0    0.685 
#>  7     7 vap_white pres_dem_hum  4970. 6.94e-18        0    0.611 
#>  8     8 vap_white pres_dem_hum 22844. 6.02e- 2        0    0.370 
#>  9     9 vap_white pres_dem_hum  7731. 0               0    0.562 
#> 10    10 vap_white pres_dem_hum  5259. 3.49e- 2        0    0.148 
#> # ℹ 13,706 more rows
…
