Conduct a sensitivity analysis for estimated ecological quantities — ei_sens • seine
…
    Examples

data(elec_1968)

spec = ei_spec(elec_1968, vap_white:vap_other, pres_ind_wal,
               total = pres_total, covariates = c(state, pop_urban, farm))
m = ei_ridge(spec)
rr = ei_riesz(spec, penalty = m$penalty)
est = ei_est(m, rr, spec)

ei_sens(est, c_outcome=0.2)
#> # A tibble: 303 × 7
#>    predictor outcome      estimate std.error c_outcome c_predictor bias_bound
#>    <chr>     <chr>           <dbl>     <dbl>     <dbl>       <dbl>      <dbl>
#>  1 vap_white pres_ind_wal    0.387    0.0246       0.2      0         0      
#>  2 vap_black pres_ind_wal    0.490    0.0505       0.2      0         0      
#>  3 vap_other pres_ind_wal   -1.19     0.528        0.2      0         0      
#>  4 vap_white pres_ind_wal    0.387    0.0246       0.2      0.0001    0.00111
#>  5 vap_black pres_ind_wal    0.490    0.0505       0.2      0.0001    0.00395
#>  6 vap_other pres_ind_wal   -1.19     0.528        0.2      0.0001    0.0915 
#>  7 vap_white pres_ind_wal    0.387    0.0246       0.2      0.0004    0.00223
#>  8 vap_black pres_ind_wal    0.490    0.0505       0.2      0.0004    0.00790
#>  9 vap_other pres_ind_wal   -1.19     0.528        0.2      0.0004    0.183  
#> 10 vap_white pres_ind_wal    0.387    0.0246       0.2      0.0009    0.00335
#> # ℹ 293 more rows
…
