Generate synthetic ecological data — ei_synthetic • seine
…
Aspects of the model can be replaced with data provided to the function.
If x or z is provided as a matrix or data frame, then the other value is
sampled from its marginal distribution. If both are provided, then the first
row of the model is skipped.

    Examples

ei_synthetic(n = 10)
#> EI Specification
#> • Predictors: `x1` and `x2`
#> • Outcome: `y`
#> • Covariates: none
#> # A tibble: 10 × 3
#>       y    x1    x2
#>   <dbl> <dbl> <dbl>
#> 1 0.282 0.833 0.167
#> 2 0.427 0.771 0.229
#> 3 0.709 0.573 0.427
#> 4 0.563 0.568 0.432
#> 5 0.559 0.649 0.351
#> # ℹ 5 more rows

ei_synthetic(n = 10, p = 2, n_x = 3)
#> EI Specification
#> • Predictors: `x1`, `x2`, and `x3`
#> • Outcome: `y`
#> • Covariates: `z1` and `z2`
#> # A tibble: 10 × 6
#>       y    x1    x2    x3     z1     z2
#>   <dbl> <dbl> <dbl> <dbl>  <dbl>  <dbl>
#> 1 0.719 0.247 0.528 0.225 -0.811 -0.443
#> 2 0.483 0.523 0.244 0.234 -0.217  0.141
#> 3 0.508 0.411 0.443 0.147  0.231  0.172
#> 4 0.634 0.490 0.203 0.307  0.643  0.546
#> 5 0.793 0.343 0.378 0.279 -0.471 -0.594
#> # ℹ 5 more rows

# Manual hyperparameters: x2 dominant and z1, z2 very correlated
ei_synthetic(n = 10, x = c(1, 95, 4), z = c(10, 9.999))
#> EI Specification
#> • Predictors: `x1`, `x2`, and `x3`
#> • Outcome: `y`
#> • Covariates: `z1` and `z2`
#> # A tibble: 10 × 6
#>       y      x1    x2     x3     z1     z2
#>   <dbl>   <dbl> <dbl>  <dbl>  <dbl>  <dbl>
#> 1 0.448 0.0129  0.956 0.0311 -0.238 -0.251
#> 2 0.661 0.00965 0.960 0.0308  0.504  0.482
#> 3 0.356 0.0188  0.963 0.0184  3.26   3.30 
#> 4 0.629 0.00670 0.947 0.0464 -0.306 -0.308
#> 5 0.591 0.00573 0.952 0.0420 -3.67  -3.69 
#> # ℹ 5 more rows

# Condition on provided x but not z
data(elec_1968)
ei_synthetic(
    x = cbind(elec_1968$pop_white, 1 - elec_1968$pop_white),
    p = 5,
    b_loc = c(0.3, 0.9),
    b_cov = matrix(c(0.02, 0.016, 0.016, 0.2), nrow=2)
)
#> EI Specification
#> • Predictors: `x1` and `x2`
#> • Outcome: `y`
#> • Covariates: `z1`, `z2`, `z3`, `z4`, and `z5`
#> # A tibble: 1,143 × 8
#>       y    x1     x2      z1      z2       z3      z4     z5
#>   <dbl> <dbl>  <dbl>   <dbl>   <dbl>    <dbl>   <dbl>  <dbl>
#> 1 0.459 0.716 0.284  -0.201   0.290  -0.00837 -0.160   0.140
#> 2 0.411 0.819 0.181   0.456  -0.572  -0.393   -0.355  -0.322
#> 3 0.120 0.538 0.462  -0.0575 -0.0419  0.234    0.215   0.364
#> 4 0.493 0.721 0.279   0.182  -0.248  -0.524   -0.0946 -0.536
#> 5 0.313 0.976 0.0241  0.765  -0.436   0.705    0.419   0.643
#> # ℹ 1,138 more rows
…
