…
Aspects of the model can be replaced with data provided to the function.
If `x` or `z` is provided as a matrix or data frame, then the other
value is sampled from its marginal distribution. If both are provided,
then the first row of the model is skipped.

## Examples

``` r
ei_synthetic(n = 10)
#> EI Specification
#> • Predictors: `x1` and `x2`
#> • Outcome: `y`
#> • Covariates: none
#> # A tibble: 10 × 3
#>       y    x1    x2
#>   <dbl> <dbl> <dbl>
#> 1 0.305 0.650 0.350
#> 2 0.735 0.737 0.263
#> 3 0.713 0.562 0.438
#> 4 0.544 0.470 0.530
#> 5 0.737 0.824 0.176
#> # ℹ 5 more rows

ei_synthetic(n = 10, p = 2, n_x = 3)
#> EI Specification
#> • Predictors: `x1`, `x2`, and `x3`
#> • Outcome: `y`
#> • Covariates: `z1` and `z2`
#> # A tibble: 10 × 6
#>       y    x1    x2     x3      z1     z2
#>   <dbl> <dbl> <dbl>  <dbl>   <dbl>  <dbl>
#> 1 0.358 0.489 0.339 0.172   0.0777 -0.190
#> 2 0.614 0.624 0.220 0.156  -0.169  -0.256
#> 3 0.353 0.616 0.292 0.0921 -0.598  -0.457
#> 4 0.193 0.583 0.365 0.0525  0.0779  0.479
#> 5 0.614 0.526 0.150 0.324   1.07    0.382
#> # ℹ 5 more rows

# Manual hyperparameters: x2 dominant and z1, z2 very correlated
ei_synthetic(n = 10, x = c(1, 95, 4), z = c(10, 9.999))
#> EI Specification
#> • Predictors: `x1`, `x2`, and `x3`
#> • Outcome: `y`
#> • Covariates: `z1` and `z2`
#> # A tibble: 10 × 6
#>       y      x1    x2     x3     z1     z2
#>   <dbl>   <dbl> <dbl>  <dbl>  <dbl>  <dbl>
#> 1 0.549 0.00275 0.978 0.0195 -2.48  -2.45 
#> 2 0.396 0.00315 0.948 0.0486 -1.40  -1.44 
#> 3 0.955 0.00279 0.926 0.0709  3.17   3.12 
#> 4 0.717 0.0109  0.957 0.0317  0.630  0.654
#> 5 0.505 0.00447 0.960 0.0359 -4.79  -4.79 
#> # ℹ 5 more rows

# Condition on provided x but not z
data(elec_1968)
ei_synthetic(
    x = cbind(elec_1968$pop_white, 1 - elec_1968$pop_white),
    p = 5,
    b_loc = c(0.3, 0.9),
    b_cov = matrix(c(0.02, 0.016, 0.016, 0.2), nrow=2)
)
#> EI Specification
#> • Predictors: `x1` and `x2`
#> • Outcome: `y`
#> • Covariates: `z1`, `z2`, `z3`, `z4`, and `z5`
#> # A tibble: 1,143 × 8
#>       y    x1     x2      z1       z2       z3      z4      z5
#>   <dbl> <dbl>  <dbl>   <dbl>    <dbl>    <dbl>   <dbl>   <dbl>
#> 1 0.519 0.716 0.284   0.171  -0.0160   0.215    0.0210  0.840 
#> 2 0.319 0.819 0.181  -0.869  -0.639   -0.384   -0.355  -0.0614
#> 3 0.518 0.538 0.462  -0.446  -0.504    0.00911 -0.118  -0.815 
#> 4 0.302 0.721 0.279  -0.428  -0.527   -0.108   -0.0846 -0.682 
#> 5 0.151 0.976 0.0241 -0.0945  0.00858  0.0118   0.185  -0.202 
#> # ℹ 1,138 more rows
```
