…
## Examples

``` r
data(elec_1968)

spec = ei_spec(elec_1968, vap_white:vap_other, pres_ind_wal,
               total = pres_total, covariates = c(state, pop_urban, farm))
m = ei_ridge(spec)
rr = ei_riesz(spec, penalty = m$penalty)
est = ei_est(m, rr, spec)

ei_sens(est, c_outcome=0.2)
#> # A tibble: 303 × 9
#>    predictor outcome estimate std.error conf.low conf.high c_outcome c_predictor
#>    <chr>     <chr>      <dbl>     <dbl>    <dbl>     <dbl>     <dbl>       <dbl>
#>  1 vap_white pres_i…    0.387    0.0246    0.339    0.435        0.2      0     
#>  2 vap_black pres_i…    0.490    0.0505    0.391    0.589        0.2      0     
#>  3 vap_other pres_i…   -1.19     0.528    -2.22    -0.151        0.2      0     
#>  4 vap_white pres_i…    0.387    0.0246    0.338    0.437        0.2      0.0001
#>  5 vap_black pres_i…    0.490    0.0505    0.387    0.593        0.2      0.0001
#>  6 vap_other pres_i…   -1.19     0.528    -2.31    -0.0591       0.2      0.0001
#>  7 vap_white pres_i…    0.387    0.0246    0.337    0.438        0.2      0.0004
#>  8 vap_black pres_i…    0.490    0.0505    0.383    0.597        0.2      0.0004
#>  9 vap_other pres_i…   -1.19     0.528    -2.40     0.0324       0.2      0.0004
#> 10 vap_white pres_i…    0.387    0.0246    0.336    0.439        0.2      0.0009
#> # ℹ 293 more rows
#> # ℹ 1 more variable: bias_bound <dbl>
…
