…
## Methods (by generic)

- `weights(ei_spec)`: Extract the totals from a specification

## Examples

``` r
data(elec_1968)
ei_spec(elec_1968, vap_white:vap_other, pres_dem_hum:pres_abs, pres_total)
#> EI Specification
#> • Predictors: `vap_white`, `vap_black`, and `vap_other`
#> • Outcome: `pres_dem_hum`, `pres_rep_nix`, `pres_ind_wal`, and `pres_abs`
#> • Covariates: none
#> # A tibble: 1,143 × 7
#>   vap_white vap_black vap_other pres_dem_hum pres_rep_nix pres_ind_wal pres_abs
#>       <dbl>     <dbl>     <dbl>        <dbl>        <dbl>        <dbl>    <dbl>
#> 1     0.761    0.237   0.00173        0.199        0.0773        0.711  0.0122 
#> 2     0.860    0.137   0.00306        0.105        0.115         0.764  0.0161 
#> 3     0.610    0.389   0.000808       0.242        0.0489        0.687  0.0218 
#> 4     0.783    0.216   0.00106        0.141        0.0571        0.799  0.00290
#> 5     0.981    0.0181  0.000757       0.0375       0.222         0.727  0.0134 
#> # ℹ 1,138 more rows
…
