…
``` r
bnds_arr = as.array(bnds)
dim(bnds_arr) # rows x predictors x outcomes
#> [1] 1143    3    4    2
```

Bounds on contrasts, such as the difference in vote share between White
and Black voters, can be computed directly by passing a `contrast`
argument.

``` r
ei_bounds(spec, bounds = c(0, 1), contrast = list(predictor = c(1, -1, 0)))
#> # A tibble: 4,572 × 5
#>     .row predictor             outcome         min    max
#>    <int> <chr>                 <chr>         <dbl>  <dbl>
#>  1     1 vap_white - vap_black pres_dem_hum -0.841 0.262 
#>  2     2 vap_white - vap_black pres_dem_hum -0.761 0.122 
#>  3     3 vap_white - vap_black pres_dem_hum -0.623 0.397 
#>  4     4 vap_white - vap_black pres_dem_hum -0.654 0.180 
#>  5     5 vap_white - vap_black pres_dem_hum -0.981 0.0382
#>  6     6 vap_white - vap_black pres_dem_hum -0.742 0.901 
#>  7     7 vap_white - vap_black pres_dem_hum -0.531 0.250 
#>  8     8 vap_white - vap_black pres_dem_hum -0.993 0.183 
#>  9     9 vap_white - vap_black pres_dem_hum -0.474 0.178 
#> 10    10 vap_white - vap_black pres_dem_hum -0.991 0.0855
#> # ℹ 4,562 more rows
```
…
