Analyzing aggregate data • seine
…
Preparing data

As an example of an ecological analysis, we will use the
elec_1968 data included in the package. The data contain
county-level election returns from Southern states in the 1968 U.S.
presidential election along with a number of covariates taken from the
1970 U.S. census. The counties here are the aggregation
units; in other analyses, states, precincts, or cities might be
the aggregation units.

library(seine)
data(elec_1968)

print(elec_1968)
#> # A tibble: 1,143 × 41
#>    fips  state  abbr  region division county    pop pop_city pop_urban pop_rural
#>    <chr> <chr>  <chr> <chr>  <chr>    <chr>   <dbl>    <dbl>     <dbl>     <dbl>
#>  1 01001 Alaba… AL    South  East So… Autau…  24460        0     0.536     0.464
#>  2 01003 Alaba… AL    South  East So… Baldw…  59382        0     0.266     0.734
#>  3 01005 Alaba… AL    South  East So… Barbo…  22543        0     0.404     0.596
#>  4 01007 Alaba… AL    South  East So… Bibb …  13812        0     0         1    
#>  5 01009 Alaba… AL    South  East So… Bloun…  26853        0     0.163     0.837
#>  6 01011 Alaba… AL    South  East So… Bullo…  11824        0     0.366     0.634
#>  7 01013 Alaba… AL    South  East So… Butle…  22007        0     0.365     0.635
#>  8 01015 Alaba… AL    South  East So… Calho… 103092        0     0.641     0.359
#>  9 01017 Alaba… AL    South  East So… Chamb…  36356        0     0.437     0.563
#> 10 01019 Alaba… AL    South  East So… Chero…  15606        0     0         1    
#> # ℹ 1,133 more rows
#> # ℹ 31 more variables: pop_white <dbl>, pop_black <dbl>, pop_aian <dbl>,
#> #   pop_asian <dbl>, pop_hisp <dbl>, vap <dbl>, vap_white <dbl>,
#> #   vap_black <dbl>, vap_other <dbl>, farm <dbl>, nonfarm <dbl>,
#> #   educ_elem <dbl>, educ_hsch <dbl>, educ_coll <dbl>, cvap <dbl>,
#> #   cvap_white <dbl>, cvap_black <dbl>, cvap_other <dbl>, inc_00_03k <dbl>,
#> #   inc_03_08k <dbl>, inc_08_25k <dbl>, inc_25_99k <dbl>, pres_dem_hum <dbl>, …
…
These data have already been cleaned. Often, outcomes and predictors
are measured as counts, or may have been rounded, so that they do not
sum to exactly 1. seine provides the
ei_proportions() function to assist in preprocessing. To
see this in action, suppose we wanted to set up the turnout problem
mentioned in the previous paragraph. The ei_proportions()
function would let us create a new turnout proportion variable from our
existing data.

elec_1968_turn = ei_proportions(elec_1968, turnout = pres_total,
                                .total = vap, clamp = 0.01)

subset(elec_1968_turn, select = c(fips, state, county, turnout, vap, .other))
#> # A tibble: 1,143 × 6
#>    fips  state   county          turnout   vap .other
#>    <chr> <chr>   <chr>             <dbl> <dbl>  <dbl>
#>  1 01001 Alabama Autauga County    0.606 12744  0.394
#>  2 01003 Alabama Baldwin County    0.568 33012  0.432
#>  3 01005 Alabama Barbour County    0.645 12370  0.355
#>  4 01007 Alabama Bibb County       0.601  7575  0.399
#>  5 01009 Alabama Blount County     0.566 15856  0.434
#>  6 01011 Alabama Bullock County    0.721  6019  0.279
#>  7 01013 Alabama Butler County     0.593 12341  0.407
#>  8 01015 Alabama Calhoun County    0.484 55547  0.516
#>  9 01017 Alabama Chambers County   0.504 21117  0.496
#> 10 01019 Alabama Cherokee County   0.614  9215  0.386
#> # ℹ 1,133 more rows
…
print(spec)
#> EI Specification
#> • Predictors: `vap_white`, `vap_black`, and `vap_other`
#> • Outcome: `pres_dem_hum`, `pres_rep_nix`, `pres_ind_wal`, and `pres_abs`
#> • Covariates (465 after preprocessing):`state`, `pop_city`, `pop_urban`, `pop_rural`, `farm`, `nonfarm`, `educ_elem`, `educ_hsch`, `educ_coll`, `inc_00_03k`, `inc_03_08k`, `inc_08_25k`, and `inc_25_99k`
#> # A tibble: 1,143 × 20
#>   vap_white vap_black vap_other pres_dem_hum pres_rep_nix pres_ind_wal pres_abs
#>       <dbl>     <dbl>     <dbl>        <dbl>        <dbl>        <dbl>    <dbl>
#> 1     0.761    0.237   0.00173        0.199        0.0773        0.711  0.0122 
#> 2     0.860    0.137   0.00306        0.105        0.115         0.764  0.0161 
#> 3     0.610    0.389   0.000808       0.242        0.0489        0.687  0.0218 
#> 4     0.783    0.216   0.00106        0.141        0.0571        0.799  0.00290
#> 5     0.981    0.0181  0.000757       0.0375       0.222         0.727  0.0134 
#> # ℹ 1,138 more rows
#> # ℹ 13 more variables: state <chr>, pop_city <dbl>, pop_urban <dbl>,
#> #   pop_rural <dbl>, farm <dbl>, nonfarm <dbl>, educ_elem <dbl>,
#> #   educ_hsch <dbl>, educ_coll <dbl>, inc_00_03k <dbl>, inc_03_08k <dbl>,
#> #   inc_08_25k <dbl>, inc_25_99k <dbl>
…
